[{"id":1,"first_name":"Patrice","last_name":"Camerana","email":"pcamerana0@over-blog.com","iban":"MR08 6331 4336 7095 2197 6837 020","password":"Vp5CDBK4"},
{"id":2,"first_name":"Carlin","last_name":"Sheahan","email":"csheahan1@booking.com","iban":"CR54 5496 9634 2936 2912 0","password":"0VMQqJ2EzhS"},
{"id":3,"first_name":"Alberta","last_name":"Fairburn","email":"afairburn2@cbsnews.com","iban":"FR86 4743 8933 63IX NTZT YXIY Q42","password":"dIgXVWfUjv"},
{"id":4,"first_name":"Roana","last_name":"Crudgington","email":"rcrudgington3@shop-pro.jp","iban":"FR65 3989 0747 497T KOI4 8QZS G80","password":"IS3k7A"},
{"id":5,"first_name":"Emyle","last_name":"Ilott","email":"eilott4@indiegogo.com","iban":"CZ06 4472 8591 6513 9459 4314","password":"RtdbuvQ9gk"},
{"id":6,"first_name":"Shayne","last_name":"Holme","email":"sholme5@facebook.com","iban":"CH46 0735 6YKB 7SLN SAT8 E","password":"ULTxduHny9Z"},
{"id":7,"first_name":"Esmaria","last_name":"Charlewood","email":"echarlewood6@rambler.ru","iban":"MD70 LPXD GLCZ VHIJ DZMP OTO9","password":"nzl7L0"},
{"id":8,"first_name":"Myron","last_name":"Ambroix","email":"mambroix7@earthlink.net","iban":"NO96 0641 1581 039","password":"2joRo9daEk"},
{"id":9,"first_name":"Kaja","last_name":"Madgin","email":"kmadgin8@diigo.com","iban":"VG49 CRGZ 9966 4765 1804 1012","password":"9dfRFIQ"},
{"id":10,"first_name":"Sidonnie","last_name":"Foulis","email":"sfoulis9@guardian.co.uk","iban":"FR85 9846 6768 14NU L7WG JDS1 Q73","password":"Lr11kmwnbM"},
{"id":11,"first_name":"Joseph","last_name":"Uppett","email":"juppetta@is.gd","iban":"PK19 VPQH 0UWL ZWH4 USJS BTI1","password":"e94ILx"},
{"id":12,"first_name":"Llewellyn","last_name":"Tape","email":"ltapeb@nps.gov","iban":"GL25 0263 0992 7936 69","password":"9bzee2y"},
{"id":13,"first_name":"Cathryn","last_name":"Gisbye","email":"cgisbyec@un.org","iban":"TN70 9123 5638 4404 9532 0931","password":"ThtDFJZRfsl"},
{"id":14,"first_name":"Zeb","last_name":"Suggey","email":"zsuggeyd@rambler.ru","iban":"ME66 7176 6297 3975 8058 85","password":"BD1EHciB8z05"},
{"id":15,"first_name":"Vi","last_name":"Milland","email":"vmillande@mapy.cz","iban":"KZ60 924H HUUX 1KE7 ALRV","password":"YwELGT"},
{"id":16,"first_name":"Naomi","last_name":"Devanney","email":"ndevanneyf@dailymotion.com","iban":"SK18 1115 4196 8468 6867 0002","password":"XFadA3"},
{"id":17,"first_name":"Gayelord","last_name":"Minerdo","email":"gminerdog@opensource.org","iban":"FR30 0629 4110 01RY QAMT S0I2 E09","password":"ulaVRzZqh"},
{"id":18,"first_name":"Hodge","last_name":"Fantham","email":"hfanthamh@wisc.edu","iban":"MK61 712B W3YQ TY0W 017","password":"IzCIRo6P3"},
{"id":19,"first_name":"Sadie","last_name":"Dibdall","email":"sdibdalli@1688.com","iban":"IS13 9473 5375 1468 8112 9099 57","password":"pLQKKV3Fbmu"},
{"id":20,"first_name":"Othella","last_name":"Meadmore","email":"omeadmorej@twitter.com","iban":"MK68 644T AK7F FBQV I80","password":"Zr4kAF"},
{"id":21,"first_name":"Lars","last_name":"Edmondson","email":"ledmondsonk@prlog.org","iban":"ME31 2881 3162 6036 0906 29","password":"iy9dbrHlhKpQ"},
{"id":22,"first_name":"Rennie","last_name":"McDonnell","email":"rmcdonnelll@gravatar.com","iban":"TN42 7650 2803 8034 1772 6732","password":"OpShRSLh17vA"},
{"id":23,"first_name":"Fernanda","last_name":"Greeding","email":"fgreedingm@yale.edu","iban":"MC18 6746 4590 0621 PEHP NDUI S84","password":"EJtuU9xYq1ZF"},
{"id":24,"first_name":"Jacquelin","last_name":"Treuge","email":"jtreugen@vk.com","iban":"KW57 GAPL WVW2 5NN1 HBD3 P8FL H69G QM","password":"SPFJZaFx"},
{"id":25,"first_name":"Gustie","last_name":"Cassidy","email":"gcassidyo@issuu.com","iban":"MK70 811P MK3N UHBI C67","password":"uu3hDa"},
{"id":26,"first_name":"Shaun","last_name":"Mityushin","email":"smityushinp@sogou.com","iban":"PL22 2212 1350 8766 3457 8504 8605","password":"hVzAoAJ143u"},
{"id":27,"first_name":"Wendy","last_name":"Bareham","email":"wbarehamq@mail.ru","iban":"FR39 1466 6524 69BX VEEB 9NZ0 A44","password":"uMHlxHnjU"},
{"id":28,"first_name":"Dillie","last_name":"Beebe","email":"dbeeber@upenn.edu","iban":"DO90 HQ3M 0951 0710 0996 5810 9410","password":"IzcXfF9RneZ"},
{"id":29,"first_name":"Elane","last_name":"Gerauld","email":"egeraulds@ocn.ne.jp","iban":"PL62 1872 0135 8582 4951 6524 8027","password":"Rai2CtSJ"},
{"id":30,"first_name":"Caleb","last_name":"Burford","email":"cburfordt@symantec.com","iban":"MR50 0608 2805 0511 8927 5524 305","password":"X0DuhTb2W"},
{"id":31,"first_name":"Niles","last_name":"Milsap","email":"nmilsapu@state.tx.us","iban":"DO55 G67Z 6110 2987 8230 6049 6223","password":"IhR6Padik"},
{"id":32,"first_name":"Mireille","last_name":"MacRedmond","email":"mmacredmondv@hp.com","iban":"MD90 TW5R HZLT DHFN ZKRN A8U3","password":"aYQH1PF"},
{"id":33,"first_name":"Brit","last_name":"Overton","email":"bovertonw@alexa.com","iban":"IT59 F350 6517 381Y 5QJK SIJQ YOJ","password":"QOGECtlUZT"},
{"id":34,"first_name":"Samson","last_name":"Keywood","email":"skeywoodx@webeden.co.uk","iban":"FR27 2946 0010 34AS JV1E KDBO T09","password":"0ao6qBkzUC"},
{"id":35,"first_name":"Petrina","last_name":"Tembey","email":"ptembeyy@apple.com","iban":"FR85 4410 6955 37SG DJLL TC0T F26","password":"5x6bFg5UHJy"},
{"id":36,"first_name":"Ronni","last_name":"Shergold","email":"rshergoldz@bandcamp.com","iban":"GB05 ZZSK 0507 9118 1309 52","password":"MXHWSWR"},
{"id":37,"first_name":"Gan","last_name":"de Leon","email":"gdeleon10@wikimedia.org","iban":"SI41 1864 4053 7530 223","password":"w4BWJRkaKd"},
{"id":38,"first_name":"Jared","last_name":"Attrey","email":"jattrey11@desdev.cn","iban":"MD42 QRNE NPAA MD2M ABWI LHYB","password":"438VQ4w2OkB"},
{"id":39,"first_name":"Tracey","last_name":"Vaillant","email":"tvaillant12@archive.org","iban":"GI88 RLPR IWKE HTFS WWAT ICW","password":"agWvHgvq"},
{"id":40,"first_name":"Dawn","last_name":"Pickersail","email":"dpickersail13@dion.ne.jp","iban":"PT55 6434 3825 6606 8240 5249 5","password":"NP2rOh3Xevg"},
{"id":41,"first_name":"Clem","last_name":"Alsina","email":"calsina14@webeden.co.uk","iban":"PL23 2017 2338 9596 3904 9862 9668","password":"p0UVGFZIzi"},
{"id":42,"first_name":"Tonia","last_name":"Son","email":"tson15@bluehost.com","iban":"LT48 6389 0746 9294 5576","password":"mtB8qq3CCVq"},
{"id":43,"first_name":"Pippo","last_name":"MacLaughlin","email":"pmaclaughlin16@4shared.com","iban":"BE19 6888 2543 3464","password":"2DdN7TXqOWi6"},
{"id":44,"first_name":"Julius","last_name":"Goldby","email":"jgoldby17@discovery.com","iban":"HR23 0555 9727 8331 5523 3","password":"sI6ibTN"},
{"id":45,"first_name":"Ramsey","last_name":"Gayden","email":"rgayden18@squarespace.com","iban":"GI77 LVPN NQHA ZYIR WO8N TNT","password":"Y69mWG"},
{"id":46,"first_name":"Selby","last_name":"Nendick","email":"snendick19@examiner.com","iban":"FR19 7107 5768 37IF IH32 FG6W W94","password":"BQBWKbd"},
{"id":47,"first_name":"Onida","last_name":"McAnalley","email":"omcanalley1a@blinklist.com","iban":"NO08 0011 1679 488","password":"V5fx5WC"},
{"id":48,"first_name":"Ofelia","last_name":"Phillins","email":"ophillins1b@youku.com","iban":"LT59 6374 9447 4390 1785","password":"U4gWL3E"},
{"id":49,"first_name":"Ivette","last_name":"Lodin","email":"ilodin1c@answers.com","iban":"AE69 4950 8740 6141 7710 770","password":"F9TIKHFgB"},
{"id":50,"first_name":"Emmaline","last_name":"McKechnie","email":"emckechnie1d@cocolog-nifty.com","iban":"GI76 DLMZ T4R8 ZGYB 3NI4 5B5","password":"LqjYCXrR8ts8"},
{"id":51,"first_name":"Creight","last_name":"Kroch","email":"ckroch1e@comcast.net","iban":"PT21 1798 9315 9835 4228 8393 9","password":"eMch0n9g8d"},
{"id":52,"first_name":"Jourdain","last_name":"Cowpertwait","email":"jcowpertwait1f@omniture.com","iban":"LB53 3811 RCBW P6VD LBQS PAZL LGEG","password":"ITUCsM6WY1"},
{"id":53,"first_name":"Andras","last_name":"Ferreo","email":"aferreo1g@ucsd.edu","iban":"AE43 8432 7372 3701 1638 253","password":"yPcGgJgET3w"},
{"id":54,"first_name":"Augustine","last_name":"Gohier","email":"agohier1h@ameblo.jp","iban":"FR67 1700 2174 19S9 5E88 2OJR O63","password":"Hdfv07g"},
{"id":55,"first_name":"Carree","last_name":"Gude","email":"cgude1i@cisco.com","iban":"KZ35 196V TJCT P5GJ D9KX","password":"vzdR5kjB33"},
{"id":56,"first_name":"Rheba","last_name":"Slocomb","email":"rslocomb1j@dell.com","iban":"KW85 WBWI EIBU YO9Z RAKK UUV4 ONDD FH","password":"fLxNgVn"},
{"id":57,"first_name":"Howie","last_name":"Gerwood","email":"hgerwood1k@apache.org","iban":"SE04 3560 1527 7041 4867 6124","password":"kIIFdNMS5"},
{"id":58,"first_name":"Natassia","last_name":"Tabourier","email":"ntabourier1l@utexas.edu","iban":"TN72 8765 7685 4346 9576 4486","password":"LHA7piVBC"},
{"id":59,"first_name":"Piggy","last_name":"Gutierrez","email":"pgutierrez1m@newsvine.com","iban":"CR26 2508 5533 4744 6716 3","password":"Xs2DyPe4cJo"},
{"id":60,"first_name":"Guntar","last_name":"Gennings","email":"ggennings1n@mapy.cz","iban":"FI72 4008 8446 7580 69","password":"rGt9wad"},
{"id":61,"first_name":"Bonni","last_name":"Donald","email":"bdonald1o@cafepress.com","iban":"BE53 9452 0351 6374","password":"Y6taNs"},
{"id":62,"first_name":"Carmelia","last_name":"Adrienne","email":"cadrienne1p@wikia.com","iban":"HR86 9576 9687 8817 5915 2","password":"RhJRUIR"},
{"id":63,"first_name":"Arlyn","last_name":"Bedlington","email":"abedlington1q@dell.com","iban":"FO70 0956 0954 7551 75","password":"LYjbSoQeA"},
{"id":64,"first_name":"Babbie","last_name":"Stamps","email":"bstamps1r@fema.gov","iban":"GL31 5863 3469 7375 59","password":"pCz7rH"},
{"id":65,"first_name":"Darin","last_name":"Charsley","email":"dcharsley1s@facebook.com","iban":"FR28 2953 4961 26FS QEM3 AR9I M87","password":"WLtqkv5ZU"},
{"id":66,"first_name":"Zacharie","last_name":"Sherreard","email":"zsherreard1t@sciencedaily.com","iban":"RS49 2391 7498 3477 0920 06","password":"lHu5dVkA"},
{"id":67,"first_name":"Carlyn","last_name":"Oakenfull","email":"coakenfull1u@army.mil","iban":"NL86 HGFK 0354 8404 22","password":"jiX0Kzl0mo"},
{"id":68,"first_name":"Lavena","last_name":"Uden","email":"luden1v@icio.us","iban":"FI36 3464 5468 2971 65","password":"fUr4Jz2Xzz"},
{"id":69,"first_name":"Doloritas","last_name":"West","email":"dwest1w@cnbc.com","iban":"BG33 QAVK 7933 96KP XSZO DK","password":"BYuKTdKet"},
{"id":70,"first_name":"Kylen","last_name":"Maplesden","email":"kmaplesden1x@virginia.edu","iban":"GR71 9963 506E 8KXK ZEM7 2XFR NTQ","password":"18gwsJz"},
{"id":71,"first_name":"Drake","last_name":"Humbell","email":"dhumbell1y@virginia.edu","iban":"FR13 9744 6786 37XB YOFF AEZU V32","password":"jtOup1oWj4nJ"},
{"id":72,"first_name":"Rickie","last_name":"Cusworth","email":"rcusworth1z@feedburner.com","iban":"FR65 9096 9692 76UP WJ0N V9JP 316","password":"XrdyEV"},
{"id":73,"first_name":"Boothe","last_name":"Massard","email":"bmassard20@mlb.com","iban":"MD47 YQJN KAZU KZGT W3XC 25L5","password":"SNtDpmxzviJ"},
{"id":74,"first_name":"Durante","last_name":"Heilds","email":"dheilds21@chronoengine.com","iban":"FI29 0899 1278 2614 99","password":"BJZSAy9aM"},
{"id":75,"first_name":"Thorndike","last_name":"Rodliff","email":"trodliff22@webs.com","iban":"IL89 0919 1190 3994 0503 519","password":"R7ubX8J2ii"},
{"id":76,"first_name":"Phillis","last_name":"Claremont","email":"pclaremont23@hc360.com","iban":"KZ98 357Z P30X YANM IZ7Y","password":"3otPMPAh"},
{"id":77,"first_name":"Stephan","last_name":"Wharby","email":"swharby24@tamu.edu","iban":"TN94 4779 6162 6087 5652 2641","password":"vmh77Nwr"},
{"id":78,"first_name":"Rani","last_name":"Tern","email":"rtern25@simplemachines.org","iban":"AE77 9253 0538 3380 0655 700","password":"CtOosLm"},
{"id":79,"first_name":"Rockey","last_name":"Clausen-Thue","email":"rclausenthue26@amazon.co.jp","iban":"IE24 MWNY 4165 6108 7281 35","password":"4qbRsrMwcV"},
{"id":80,"first_name":"Georgianna","last_name":"Healing","email":"ghealing27@last.fm","iban":"CH30 0727 77JY QGKW Y594 V","password":"CYqqlWm6"},
{"id":81,"first_name":"Delphinia","last_name":"Janos","email":"djanos28@stumbleupon.com","iban":"RO19 LKST UM5G KZXM 6SSO APPY","password":"Q5hpMRx"},
{"id":82,"first_name":"Asia","last_name":"Lepick","email":"alepick29@arstechnica.com","iban":"CH87 9894 8WVC WNE3 SH3L 0","password":"yTxFkt"},
{"id":83,"first_name":"Robby","last_name":"Jedrzejewicz","email":"rjedrzejewicz2a@ycombinator.com","iban":"GT61 CICK WDNO CMDP GXY8 XC2T MYNU","password":"sQroFKVYha"},
{"id":84,"first_name":"Kent","last_name":"Ofen","email":"kofen2b@yahoo.co.jp","iban":"PL88 3883 8905 9818 7830 0126 0711","password":"3JY3t4qCyW2E"},
{"id":85,"first_name":"Debora","last_name":"Ledram","email":"dledram2c@joomla.org","iban":"AD34 9382 4891 2XTI KEQL Z7OK","password":"zNTRLlY"},
{"id":86,"first_name":"Reagen","last_name":"Honniebal","email":"rhonniebal2d@ftc.gov","iban":"CZ34 8725 0713 3080 6703 9131","password":"clbpbo1apEv4"},
{"id":87,"first_name":"Meryl","last_name":"Wigginton","email":"mwigginton2e@google.es","iban":"FR43 5067 0100 48VZ RGXG UKXI V60","password":"TlbHCP"},
{"id":88,"first_name":"Lutero","last_name":"Halliberton","email":"lhalliberton2f@bbb.org","iban":"BR82 1093 1482 3768 1589 8537 004F P","password":"1Kxg7SG"},
{"id":89,"first_name":"Kizzie","last_name":"Lansbury","email":"klansbury2g@va.gov","iban":"EE89 4111 0419 5233 0970","password":"c6MTO3"},
{"id":90,"first_name":"Corby","last_name":"Beisley","email":"cbeisley2h@sbwire.com","iban":"PS21 CEDM VRMT CVDR 7ROB P0KO 85J6 H","password":"1QepvkkyuLhe"},
{"id":91,"first_name":"Cookie","last_name":"Vauls","email":"cvauls2i@t-online.de","iban":"FR95 2199 3035 10UW GMXX HLXV S18","password":"wW9RSIEUOH"},
{"id":92,"first_name":"Hyacinthia","last_name":"Bourdis","email":"hbourdis2j@moonfruit.com","iban":"FI74 8624 5084 2600 37","password":"V7RvtwgzD"},
{"id":93,"first_name":"Gertrud","last_name":"Fonte","email":"gfonte2k@hao123.com","iban":"FI76 6502 5794 3178 43","password":"vdHXXoSHV1yk"},
{"id":94,"first_name":"Tabitha","last_name":"Reignould","email":"treignould2l@taobao.com","iban":"BA83 7160 0749 0894 2786","password":"lhY3xd"},
{"id":95,"first_name":"Dorene","last_name":"Beven","email":"dbeven2m@ucla.edu","iban":"ME03 3457 7096 2426 4188 81","password":"MCJYpd9FA"},
{"id":96,"first_name":"Gilemette","last_name":"Medlin","email":"gmedlin2n@amazon.com","iban":"LT18 2788 3300 1434 2890","password":"cUFpPCYcHm2"},
{"id":97,"first_name":"Dayna","last_name":"Lars","email":"dlars2o@chron.com","iban":"GE90 KO40 1897 3945 3170 01","password":"FYOJYKrhsF"},
{"id":98,"first_name":"Dwain","last_name":"Pinkard","email":"dpinkard2p@lycos.com","iban":"CH51 8068 1GT9 0WSZ IB94 W","password":"WTXvbZEd"},
{"id":99,"first_name":"Ernesta","last_name":"Love","email":"elove2q@state.tx.us","iban":"GR20 7863 790Y 8IXL YTHD BLFX JAG","password":"8CTWXIOi"},
{"id":100,"first_name":"Sarene","last_name":"Heyburn","email":"sheyburn2r@goo.ne.jp","iban":"HU53 9605 8358 0214 0244 5530 6341","password":"u2QMbJ5R"}]
