[{"id":1,"iban":"PS03 WJHV MMUE EOLP OBTN UE3L UQQJ C","userid":1,"balance":4389},
{"id":2,"iban":"PS39 QJIJ A0SN BBS3 5SCY 8V2N STC5 V","userid":2,"balance":5396},
{"id":3,"iban":"EE69 2883 0370 8717 4400","userid":3,"balance":5469},
{"id":4,"iban":"TR27 5443 5SQX PQX9 ROX6 BMOC 8C","userid":4,"balance":4164},
{"id":5,"iban":"FR62 3231 1855 95XO 13F2 MNWP J14","userid":5,"balance":676},
{"id":6,"iban":"FR23 0011 6815 96TL NJEG 3ANS T14","userid":6,"balance":1676},
{"id":7,"iban":"FR04 4699 1142 28LQ G7OZ NJWA V25","userid":7,"balance":9490},
{"id":8,"iban":"SM16 N434 6245 6122 ZRVN QOYD ABT","userid":8,"balance":3847},
{"id":9,"iban":"PL60 7083 2940 9323 3722 9007 2958","userid":9,"balance":7531},
{"id":10,"iban":"BE07 5105 4275 9810","userid":10,"balance":3327},
{"id":11,"iban":"NO62 5218 8859 648","userid":11,"balance":3731},
{"id":12,"iban":"FR57 6854 5475 23YU 39D6 C3F6 D80","userid":12,"balance":1525},
{"id":13,"iban":"AT94 8980 5485 8451 6854","userid":13,"balance":3971},
{"id":14,"iban":"GL02 3086 4643 9466 34","userid":14,"balance":2175},
{"id":15,"iban":"CZ91 4275 2995 3648 4809 0681","userid":15,"balance":8239},
{"id":16,"iban":"GR85 8940 758D ORWB 3G4M UX4B OJF","userid":16,"balance":6261},
{"id":17,"iban":"AT17 2132 9142 3702 8603","userid":17,"balance":8486},
{"id":18,"iban":"FR75 7847 9901 258Y MX5Q 10NH K07","userid":18,"balance":8391},
{"id":19,"iban":"SI38 9987 0996 9121 025","userid":19,"balance":907},
{"id":20,"iban":"FR79 7284 9963 73HJ RHGB B1IH A14","userid":20,"balance":7243},
{"id":21,"iban":"IE77 AVTJ 5158 0040 5903 84","userid":21,"balance":6905},
{"id":22,"iban":"EE51 5131 5652 2717 7459","userid":22,"balance":1867},
{"id":23,"iban":"IE07 BFQN 2969 3367 1590 60","userid":23,"balance":6030},
{"id":24,"iban":"FR59 0501 9237 98HY GVQY E4Z5 E60","userid":24,"balance":2902},
{"id":25,"iban":"FR39 4733 4996 18KV Q7LS XXAQ G90","userid":25,"balance":3477},
{"id":26,"iban":"GB05 XQNQ 3765 7442 3858 10","userid":26,"balance":2706},
{"id":27,"iban":"GB15 JLZR 5996 0840 2211 74","userid":27,"balance":1882},
{"id":28,"iban":"SI46 5064 9710 7709 269","userid":28,"balance":307},
{"id":29,"iban":"GB10 QASL 0383 7971 6019 98","userid":29,"balance":8642},
{"id":30,"iban":"FR38 3370 7444 59U7 RA0N EZP8 V53","userid":30,"balance":93},
{"id":31,"iban":"AT87 5316 2595 5428 1591","userid":31,"balance":2051},
{"id":32,"iban":"FR64 9591 6854 02BX WBMV ENLV E24","userid":32,"balance":3162},
{"id":33,"iban":"TR38 2976 0SNJ KAEK NJGR JMJT LO","userid":33,"balance":7615},
{"id":34,"iban":"LT17 6527 7330 0700 9749","userid":34,"balance":7523},
{"id":35,"iban":"DO62 S2Z9 8772 0922 4779 0776 4929","userid":35,"balance":5250},
{"id":36,"iban":"DO12 PRSV 5518 0081 1439 8538 1739","userid":36,"balance":4073},
{"id":37,"iban":"AE47 1812 2553 7098 7591 844","userid":37,"balance":8761},
{"id":38,"iban":"FR65 6109 0933 80TA EBQ4 ZMDW X76","userid":38,"balance":2564},
{"id":39,"iban":"FR64 7427 3881 882X TMCP TFYH O92","userid":39,"balance":2994},
{"id":40,"iban":"CR04 7520 8145 0430 7600 6","userid":40,"balance":4127},
{"id":41,"iban":"GB39 XLOZ 1690 8625 2651 06","userid":41,"balance":8670},
{"id":42,"iban":"CZ28 2999 2268 3479 7311 9508","userid":42,"balance":5263},
{"id":43,"iban":"RO68 GEVV AJOV MMSH HONE OAV3","userid":43,"balance":9171},
{"id":44,"iban":"AL87 3707 8879 TFXW UUUP S8IW UI8S","userid":44,"balance":8062},
{"id":45,"iban":"DE88 0868 0208 2638 0323 71","userid":45,"balance":4373},
{"id":46,"iban":"MK07 921D WLYP NYR5 O69","userid":46,"balance":650},
{"id":47,"iban":"PL36 5480 8259 5919 8154 1329 1323","userid":47,"balance":7656},
{"id":48,"iban":"MU90 CMAT 8004 9338 8595 1874 492F MS","userid":48,"balance":5646},
{"id":49,"iban":"SK83 7933 4941 4507 7747 3010","userid":49,"balance":8176},
{"id":50,"iban":"SA39 44UM VFTW XEKG KZF3 A8ZA","userid":50,"balance":8457},
{"id":51,"iban":"LV04 HHIZ RTP0 ZSK3 CLUG C","userid":51,"balance":2670},
{"id":52,"iban":"TR34 3093 23AZ MQ5L ESNK IDAT PS","userid":52,"balance":461},
{"id":53,"iban":"PL86 2597 6863 5480 3020 3990 6778","userid":53,"balance":4686},
{"id":54,"iban":"MT31 LMQW 4027 6LAE IQAQ FMI7 OB5A QEU","userid":54,"balance":1116},
{"id":55,"iban":"FI54 2385 0277 6048 14","userid":55,"balance":6625},
{"id":56,"iban":"BR15 4675 9985 1261 0730 9897 540N S","userid":56,"balance":668},
{"id":57,"iban":"FR68 4216 4875 32ER GREJ 3VHK E79","userid":57,"balance":6185},
{"id":58,"iban":"HU28 4228 2374 0938 4421 8219 1721","userid":58,"balance":7},
{"id":59,"iban":"HU49 0450 8053 8790 3931 4452 4314","userid":59,"balance":6082},
{"id":60,"iban":"AE76 6179 8116 1293 2161 511","userid":60,"balance":3939}]
